{"failedCount":0,"prefixedPath":"classpath:com\/api\/automation\/getRequest\/getRequest.feature","packageQualifiedName":"com.api.automation.getRequest.getRequest","loopIndex":-1,"relativePath":"com\/api\/automation\/getRequest\/getRequest.feature","scenarioResults":[{"sectionIndex":0,"stepResults":[{"result":{"nanos":2025100,"millis":2.0251,"status":"passed"},"step":{"background":true,"line":5,"prefix":"Given","index":0,"text":"url 'https:\/\/reqres.in'"},"stepLog":"18:38:47.103 karate.env system property was: null \n"},{"result":{"nanos":5567000,"millis":5.567,"status":"passed"},"step":{"background":true,"line":6,"prefix":"And","index":1,"text":"print \"Setup the Base path\""},"stepLog":"18:38:47.119 [print] Setup the Base path \n"},{"result":{"nanos":496100,"millis":0.4961,"status":"passed"},"step":{"line":9,"prefix":"And","index":0,"text":"path '\/api\/users?page=1'"}},{"result":{"nanos":1554747300,"millis":1554.7473,"status":"passed"},"step":{"line":10,"prefix":"When","index":1,"text":"method get # Send the get request"},"stepLog":"18:38:47.419 request:\n1 > GET https:\/\/reqres.in\/api\/users%3Fpage=1\n1 > Host: reqres.in\n1 > Connection: Keep-Alive\n1 > User-Agent: Apache-HttpClient\/4.5.14 (Java\/17.0.8.1)\n1 > Accept-Encoding: gzip,deflate\n\n\n18:38:48.674 response time in milliseconds: 1254\n1 < 200\n1 < Date: Wed, 01 Nov 2023 07:38:49 GMT\n1 < Content-Type: application\/json; charset=utf-8\n1 < Transfer-Encoding: chunked\n1 < Connection: keep-alive\n1 < Report-To: {\"group\":\"heroku-nel\",\"max_age\":3600,\"endpoints\":[{\"url\":\"https:\/\/nel.heroku.com\/reports?ts=1698814308&sid=c4c9725f-1ab0-44d8-820f-430df2718e11&s=reqa2XCb0m52vIhKHJOvyzKEClw5RIwpC29hplW%2BNz8%3D\"}]}\n1 < Reporting-Endpoints: heroku-nel=https:\/\/nel.heroku.com\/reports?ts=1698814308&sid=c4c9725f-1ab0-44d8-820f-430df2718e11&s=reqa2XCb0m52vIhKHJOvyzKEClw5RIwpC29hplW%2BNz8%3D\n1 < Nel: {\"report_to\":\"heroku-nel\",\"max_age\":3600,\"success_fraction\":0.005,\"failure_fraction\":0.05,\"response_headers\":[\"Via\"]}\n1 < X-Powered-By: Express\n1 < Access-Control-Allow-Origin: *\n1 < Etag: W\/\"2c1-N6Rqerxquq2kgQhL51EiSg4x0R8\"\n1 < Via: 1.1 vegur\n1 < Cache-Control: max-age=14400\n1 < CF-Cache-Status: REVALIDATED\n1 < Vary: Accept-Encoding\n1 < Server: cloudflare\n1 < CF-RAY: 81f27af6be6e5cdc-SIN\n{\"page\":1,\"per_page\":6,\"total\":12,\"total_pages\":2,\"data\":[{\"id\":1,\"name\":\"cerulean\",\"year\":2000,\"color\":\"#98B2D1\",\"pantone_value\":\"15-4020\"},{\"id\":2,\"name\":\"fuchsia rose\",\"year\":2001,\"color\":\"#C74375\",\"pantone_value\":\"17-2031\"},{\"id\":3,\"name\":\"true red\",\"year\":2002,\"color\":\"#BF1932\",\"pantone_value\":\"19-1664\"},{\"id\":4,\"name\":\"aqua sky\",\"year\":2003,\"color\":\"#7BC4C4\",\"pantone_value\":\"14-4811\"},{\"id\":5,\"name\":\"tigerlily\",\"year\":2004,\"color\":\"#E2583E\",\"pantone_value\":\"17-1456\"},{\"id\":6,\"name\":\"blue turquoise\",\"year\":2005,\"color\":\"#53B0AE\",\"pantone_value\":\"15-5217\"}],\"support\":{\"url\":\"https:\/\/reqres.in\/#support-heading\",\"text\":\"To keep ReqRes free, contributions towards server costs are appreciated!\"}}\n\n"},{"result":{"nanos":8100,"millis":0.0081,"status":"passed"},"step":{"line":11,"prefix":"Then","index":2,"text":"status 200 # the status code response should be 200"}},{"result":{"nanos":1783600,"millis":1.7836,"status":"passed"},"step":{"line":12,"prefix":"And","index":3,"text":"print response"},"stepLog":"18:38:48.676 [print] {\n  \"page\": 1,\n  \"per_page\": 6,\n  \"total\": 12,\n  \"total_pages\": 2,\n  \"data\": [\n    {\n      \"id\": 1,\n      \"name\": \"cerulean\",\n      \"year\": 2000,\n      \"color\": \"#98B2D1\",\n      \"pantone_value\": \"15-4020\"\n    },\n    {\n      \"id\": 2,\n      \"name\": \"fuchsia rose\",\n      \"year\": 2001,\n      \"color\": \"#C74375\",\n      \"pantone_value\": \"17-2031\"\n    },\n    {\n      \"id\": 3,\n      \"name\": \"true red\",\n      \"year\": 2002,\n      \"color\": \"#BF1932\",\n      \"pantone_value\": \"19-1664\"\n    },\n    {\n      \"id\": 4,\n      \"name\": \"aqua sky\",\n      \"year\": 2003,\n      \"color\": \"#7BC4C4\",\n      \"pantone_value\": \"14-4811\"\n    },\n    {\n      \"id\": 5,\n      \"name\": \"tigerlily\",\n      \"year\": 2004,\n      \"color\": \"#E2583E\",\n      \"pantone_value\": \"17-1456\"\n    },\n    {\n      \"id\": 6,\n      \"name\": \"blue turquoise\",\n      \"year\": 2005,\n      \"color\": \"#53B0AE\",\n      \"pantone_value\": \"15-5217\"\n    }\n  ],\n  \"support\": {\n    \"url\": \"https:\/\/reqres.in\/#support-heading\",\n    \"text\": \"To keep ReqRes free, contributions towards server costs are appreciated!\"\n  }\n}\n \n"},{"result":{"nanos":1208900,"millis":1.2089,"status":"passed"},"step":{"line":13,"prefix":"And","index":4,"text":"match response contains deep {\"page\":1}"}},{"result":{"nanos":3925100,"millis":3.9251,"status":"passed"},"step":{"line":14,"prefix":"And","index":5,"text":"match response contains deep {\"data\":[{\"name\":\"fuchsia rose\"}]}"}},{"result":{"nanos":2712700,"millis":2.7127,"status":"passed"},"step":{"line":15,"prefix":"And","index":6,"text":"match response.data[3].name == 'aqua sky'"}},{"result":{"nanos":948000,"millis":0.948,"status":"passed"},"step":{"line":16,"prefix":"And","index":7,"text":"match response.data[3].name == '#present'"}},{"result":{"nanos":779300,"millis":0.7793,"status":"passed"},"step":{"line":17,"prefix":"And","index":8,"text":"match response.data[3].name == '#notnull'"}},{"result":{"nanos":11842800,"millis":11.8428,"status":"passed"},"step":{"line":18,"prefix":"*","index":9,"text":"def actualResponse = read(\"JsonResponse.json\")"}},{"result":{"nanos":848700,"millis":0.8487,"status":"passed"},"step":{"line":19,"prefix":"And","index":10,"text":"match response == actualResponse"}},{"result":{"nanos":1904600,"millis":1.9046,"status":"passed"},"step":{"line":20,"prefix":"And","index":11,"text":"print \"File ==> \", actualResponse"},"stepLog":"18:38:48.701 [print] File ==>  {\n  \"page\": 1,\n  \"per_page\": 6,\n  \"total\": 12,\n  \"total_pages\": 2,\n  \"data\": [\n    {\n      \"id\": 1,\n      \"name\": \"cerulean\",\n      \"year\": 2000,\n      \"color\": \"#98B2D1\",\n      \"pantone_value\": \"15-4020\"\n    },\n    {\n      \"id\": 2,\n      \"name\": \"fuchsia rose\",\n      \"year\": 2001,\n      \"color\": \"#C74375\",\n      \"pantone_value\": \"17-2031\"\n    },\n    {\n      \"id\": 3,\n      \"name\": \"true red\",\n      \"year\": 2002,\n      \"color\": \"#BF1932\",\n      \"pantone_value\": \"19-1664\"\n    },\n    {\n      \"id\": 4,\n      \"name\": \"aqua sky\",\n      \"year\": 2003,\n      \"color\": \"#7BC4C4\",\n      \"pantone_value\": \"14-4811\"\n    },\n    {\n      \"id\": 5,\n      \"name\": \"tigerlily\",\n      \"year\": 2004,\n      \"color\": \"#E2583E\",\n      \"pantone_value\": \"17-1456\"\n    },\n    {\n      \"id\": 6,\n      \"name\": \"blue turquoise\",\n      \"year\": 2005,\n      \"color\": \"#53B0AE\",\n      \"pantone_value\": \"15-5217\"\n    }\n  ],\n  \"support\": {\n    \"url\": \"https:\/\/reqres.in\/#support-heading\",\n    \"text\": \"To keep ReqRes free, contributions towards server costs are appreciated!\"\n  }\n}\n \n"}],"executorName":"pool-1-thread-2","line":8,"name":"To get all the data from application in JSON format","description":"","durationMillis":1588.7973,"startTime":1698824326899,"failed":false,"refId":"[1:8]","endTime":1698824328702,"exampleIndex":-1},{"sectionIndex":1,"stepResults":[{"result":{"nanos":2254200,"millis":2.2542,"status":"passed"},"step":{"background":true,"line":5,"prefix":"Given","index":0,"text":"url 'https:\/\/reqres.in'"},"stepLog":"18:38:47.095 karate.env system property was: null \n"},{"result":{"nanos":2913400,"millis":2.9134,"status":"passed"},"step":{"background":true,"line":6,"prefix":"And","index":1,"text":"print \"Setup the Base path\""},"stepLog":"18:38:47.116 [print] Setup the Base path \n"},{"result":{"nanos":469400,"millis":0.4694,"status":"passed"},"step":{"line":23,"prefix":"And","index":0,"text":"path '\/api\/users?page=2'"}},{"result":{"nanos":726800,"millis":0.7268,"status":"passed"},"step":{"line":24,"prefix":"And","index":1,"text":"header Accept = 'application\/xml'"}},{"result":{"nanos":1567014100,"millis":1567.0141,"status":"passed"},"step":{"line":25,"prefix":"When","index":2,"text":"method get # Send the get request"},"stepLog":"18:38:47.419 request:\n1 > GET https:\/\/reqres.in\/api\/users%3Fpage=2\n1 > Accept: application\/xml\n1 > Host: reqres.in\n1 > Connection: Keep-Alive\n1 > User-Agent: Apache-HttpClient\/4.5.14 (Java\/17.0.8.1)\n1 > Accept-Encoding: gzip,deflate\n\n\n18:38:48.684 response time in milliseconds: 1263\n1 < 200\n1 < Date: Wed, 01 Nov 2023 07:38:49 GMT\n1 < Content-Type: application\/json; charset=utf-8\n1 < Transfer-Encoding: chunked\n1 < Connection: keep-alive\n1 < X-Powered-By: Express\n1 < Access-Control-Allow-Origin: *\n1 < Etag: W\/\"2c1-N6Rqerxquq2kgQhL51EiSg4x0R8\"\n1 < Via: 1.1 vegur\n1 < Cache-Control: max-age=14400\n1 < CF-Cache-Status: REVALIDATED\n1 < Report-To: {\"endpoints\":[{\"url\":\"https:\\\/\\\/a.nel.cloudflare.com\\\/report\\\/v3?s=E9HQssUjyrX5GygJdjC9grmcLiwrqfxYWKTYv2Brwa7esbMpsZrUqVTLEAlkDh1jHpji%2Frl%2BIrIRvtDXpmZqUDJoGenLNMldiy6M3ZmaphmitUBJRxLk0HLMsw%3D%3D\"}],\"group\":\"cf-nel\",\"max_age\":604800}\n1 < NEL: {\"success_fraction\":0,\"report_to\":\"cf-nel\",\"max_age\":604800}\n1 < Vary: Accept-Encoding\n1 < Server: cloudflare\n1 < CF-RAY: 81f27af6b9f53f95-SIN\n{\"page\":1,\"per_page\":6,\"total\":12,\"total_pages\":2,\"data\":[{\"id\":1,\"name\":\"cerulean\",\"year\":2000,\"color\":\"#98B2D1\",\"pantone_value\":\"15-4020\"},{\"id\":2,\"name\":\"fuchsia rose\",\"year\":2001,\"color\":\"#C74375\",\"pantone_value\":\"17-2031\"},{\"id\":3,\"name\":\"true red\",\"year\":2002,\"color\":\"#BF1932\",\"pantone_value\":\"19-1664\"},{\"id\":4,\"name\":\"aqua sky\",\"year\":2003,\"color\":\"#7BC4C4\",\"pantone_value\":\"14-4811\"},{\"id\":5,\"name\":\"tigerlily\",\"year\":2004,\"color\":\"#E2583E\",\"pantone_value\":\"17-1456\"},{\"id\":6,\"name\":\"blue turquoise\",\"year\":2005,\"color\":\"#53B0AE\",\"pantone_value\":\"15-5217\"}],\"support\":{\"url\":\"https:\/\/reqres.in\/#support-heading\",\"text\":\"To keep ReqRes free, contributions towards server costs are appreciated!\"}}\n\n"},{"result":{"nanos":6400,"millis":0.0064,"status":"passed"},"step":{"line":26,"prefix":"Then","index":3,"text":"status 200 # the status code response should be 200"}},{"result":{"nanos":1684800,"millis":1.6848,"status":"passed"},"step":{"line":27,"prefix":"And","index":4,"text":"print response"},"stepLog":"18:38:48.687 [print] {\n  \"page\": 1,\n  \"per_page\": 6,\n  \"total\": 12,\n  \"total_pages\": 2,\n  \"data\": [\n    {\n      \"id\": 1,\n      \"name\": \"cerulean\",\n      \"year\": 2000,\n      \"color\": \"#98B2D1\",\n      \"pantone_value\": \"15-4020\"\n    },\n    {\n      \"id\": 2,\n      \"name\": \"fuchsia rose\",\n      \"year\": 2001,\n      \"color\": \"#C74375\",\n      \"pantone_value\": \"17-2031\"\n    },\n    {\n      \"id\": 3,\n      \"name\": \"true red\",\n      \"year\": 2002,\n      \"color\": \"#BF1932\",\n      \"pantone_value\": \"19-1664\"\n    },\n    {\n      \"id\": 4,\n      \"name\": \"aqua sky\",\n      \"year\": 2003,\n      \"color\": \"#7BC4C4\",\n      \"pantone_value\": \"14-4811\"\n    },\n    {\n      \"id\": 5,\n      \"name\": \"tigerlily\",\n      \"year\": 2004,\n      \"color\": \"#E2583E\",\n      \"pantone_value\": \"17-1456\"\n    },\n    {\n      \"id\": 6,\n      \"name\": \"blue turquoise\",\n      \"year\": 2005,\n      \"color\": \"#53B0AE\",\n      \"pantone_value\": \"15-5217\"\n    }\n  ],\n  \"support\": {\n    \"url\": \"https:\/\/reqres.in\/#support-heading\",\n    \"text\": \"To keep ReqRes free, contributions towards server costs are appreciated!\"\n  }\n}\n \n"},{"result":{"nanos":1040100,"millis":1.0401,"status":"passed"},"step":{"line":28,"prefix":"And","index":5,"text":"match response contains deep {\"data\":[{\"name\":\"tigerlily\"}]}"}}],"executorName":"pool-1-thread-3","line":22,"name":"To get all the data from application in XML format","description":"","durationMillis":1576.1092,"startTime":1698824326899,"failed":false,"refId":"[2:22]","endTime":1698824328688,"exampleIndex":-1}],"callDepth":0,"name":"To test the \"GET\" end point of the application","description":"To test different get end point with different data formate supported by the application","resultDate":"2023-11-01 06:38:50 PM","durationMillis":3164.9065,"passedCount":2}