{"failedCount":0,"prefixedPath":"classpath:com\/api\/automation\/getRequest\/getRequest.feature","packageQualifiedName":"com.api.automation.getRequest.getRequest","loopIndex":-1,"relativePath":"com\/api\/automation\/getRequest\/getRequest.feature","scenarioResults":[{"sectionIndex":0,"stepResults":[{"result":{"nanos":1499100,"millis":1.4991,"status":"passed"},"step":{"background":true,"line":5,"prefix":"Given","index":0,"text":"url 'https:\/\/reqres.in'"},"stepLog":"16:55:42.046 karate.env system property was: null \n"},{"result":{"nanos":5552500,"millis":5.5525,"status":"passed"},"step":{"background":true,"line":6,"prefix":"And","index":1,"text":"print \"Setup the Base path\""},"stepLog":"16:55:42.078 [print] Setup the Base path \n"},{"result":{"nanos":534200,"millis":0.5342,"status":"passed"},"step":{"line":9,"prefix":"And","index":0,"text":"path '\/api\/users?page=1'"}},{"result":{"nanos":3692709900,"millis":3692.7099,"status":"passed"},"step":{"line":10,"prefix":"When","index":1,"text":"method get # Send the get request"},"stepLog":"16:55:44.385 request:\n1 > GET https:\/\/reqres.in\/api\/users%3Fpage=1\n1 > Host: reqres.in\n1 > Connection: Keep-Alive\n1 > User-Agent: Apache-HttpClient\/4.5.14 (Java\/17.0.8.1)\n1 > Accept-Encoding: gzip,deflate\n\n\n16:55:45.771 response time in milliseconds: 1385\n1 < 200\n1 < Date: Tue, 02 Jan 2024 05:55:49 GMT\n1 < Content-Type: application\/json; charset=utf-8\n1 < Transfer-Encoding: chunked\n1 < Connection: keep-alive\n1 < Report-To: {\"group\":\"heroku-nel\",\"max_age\":3600,\"endpoints\":[{\"url\":\"https:\/\/nel.heroku.com\/reports?ts=1704174949&sid=c4c9725f-1ab0-44d8-820f-430df2718e11&s=GtlwQAInRKRr1VFbC4r4CPpHSs7DPfuA4yB2uz6ep60%3D\"}]}\n1 < Reporting-Endpoints: heroku-nel=https:\/\/nel.heroku.com\/reports?ts=1704174949&sid=c4c9725f-1ab0-44d8-820f-430df2718e11&s=GtlwQAInRKRr1VFbC4r4CPpHSs7DPfuA4yB2uz6ep60%3D\n1 < Nel: {\"report_to\":\"heroku-nel\",\"max_age\":3600,\"success_fraction\":0.005,\"failure_fraction\":0.05,\"response_headers\":[\"Via\"]}\n1 < X-Powered-By: Express\n1 < Access-Control-Allow-Origin: *\n1 < Etag: W\/\"2c1-N6Rqerxquq2kgQhL51EiSg4x0R8\"\n1 < Via: 1.1 vegur\n1 < Cache-Control: max-age=14400\n1 < CF-Cache-Status: MISS\n1 < Vary: Accept-Encoding\n1 < Server: cloudflare\n1 < CF-RAY: 83f0c1579a49aabb-SYD\n{\"page\":1,\"per_page\":6,\"total\":12,\"total_pages\":2,\"data\":[{\"id\":1,\"name\":\"cerulean\",\"year\":2000,\"color\":\"#98B2D1\",\"pantone_value\":\"15-4020\"},{\"id\":2,\"name\":\"fuchsia rose\",\"year\":2001,\"color\":\"#C74375\",\"pantone_value\":\"17-2031\"},{\"id\":3,\"name\":\"true red\",\"year\":2002,\"color\":\"#BF1932\",\"pantone_value\":\"19-1664\"},{\"id\":4,\"name\":\"aqua sky\",\"year\":2003,\"color\":\"#7BC4C4\",\"pantone_value\":\"14-4811\"},{\"id\":5,\"name\":\"tigerlily\",\"year\":2004,\"color\":\"#E2583E\",\"pantone_value\":\"17-1456\"},{\"id\":6,\"name\":\"blue turquoise\",\"year\":2005,\"color\":\"#53B0AE\",\"pantone_value\":\"15-5217\"}],\"support\":{\"url\":\"https:\/\/reqres.in\/#support-heading\",\"text\":\"To keep ReqRes free, contributions towards server costs are appreciated!\"}}\n\n"},{"result":{"nanos":9800,"millis":0.0098,"status":"passed"},"step":{"line":11,"prefix":"Then","index":2,"text":"status 200 # the status code response should be 200"}},{"result":{"nanos":2117200,"millis":2.1172,"status":"passed"},"step":{"line":12,"prefix":"And","index":3,"text":"print response"},"stepLog":"16:55:45.774 [print] {\n  \"page\": 1,\n  \"per_page\": 6,\n  \"total\": 12,\n  \"total_pages\": 2,\n  \"data\": [\n    {\n      \"id\": 1,\n      \"name\": \"cerulean\",\n      \"year\": 2000,\n      \"color\": \"#98B2D1\",\n      \"pantone_value\": \"15-4020\"\n    },\n    {\n      \"id\": 2,\n      \"name\": \"fuchsia rose\",\n      \"year\": 2001,\n      \"color\": \"#C74375\",\n      \"pantone_value\": \"17-2031\"\n    },\n    {\n      \"id\": 3,\n      \"name\": \"true red\",\n      \"year\": 2002,\n      \"color\": \"#BF1932\",\n      \"pantone_value\": \"19-1664\"\n    },\n    {\n      \"id\": 4,\n      \"name\": \"aqua sky\",\n      \"year\": 2003,\n      \"color\": \"#7BC4C4\",\n      \"pantone_value\": \"14-4811\"\n    },\n    {\n      \"id\": 5,\n      \"name\": \"tigerlily\",\n      \"year\": 2004,\n      \"color\": \"#E2583E\",\n      \"pantone_value\": \"17-1456\"\n    },\n    {\n      \"id\": 6,\n      \"name\": \"blue turquoise\",\n      \"year\": 2005,\n      \"color\": \"#53B0AE\",\n      \"pantone_value\": \"15-5217\"\n    }\n  ],\n  \"support\": {\n    \"url\": \"https:\/\/reqres.in\/#support-heading\",\n    \"text\": \"To keep ReqRes free, contributions towards server costs are appreciated!\"\n  }\n}\n \n"},{"result":{"nanos":1532800,"millis":1.5328,"status":"passed"},"step":{"line":13,"prefix":"And","index":4,"text":"match response contains deep {\"page\":1}"}},{"result":{"nanos":6547600,"millis":6.5476,"status":"passed"},"step":{"line":14,"prefix":"And","index":5,"text":"match response contains deep {\"data\":[{\"name\":\"fuchsia rose\"}]}"}},{"result":{"nanos":2647100,"millis":2.6471,"status":"passed"},"step":{"line":15,"prefix":"And","index":6,"text":"match response.data[3].name == 'aqua sky'"}},{"result":{"nanos":855000,"millis":0.855,"status":"passed"},"step":{"line":16,"prefix":"And","index":7,"text":"match response.data[3].name == '#present'"}},{"result":{"nanos":1026700,"millis":1.0267,"status":"passed"},"step":{"line":17,"prefix":"And","index":8,"text":"match response.data[3].name == '#notnull'"}},{"result":{"nanos":13763800,"millis":13.7638,"status":"passed"},"step":{"line":18,"prefix":"*","index":9,"text":"def actualResponse = read(\"JsonResponse.json\")"}},{"result":{"nanos":580000,"millis":0.58,"status":"passed"},"step":{"line":19,"prefix":"And","index":10,"text":"match response == actualResponse"}},{"result":{"nanos":1314600,"millis":1.3146,"status":"passed"},"step":{"line":20,"prefix":"And","index":11,"text":"print \"File ==> \", actualResponse"},"stepLog":"16:55:45.803 [print] File ==>  {\n  \"page\": 1,\n  \"per_page\": 6,\n  \"total\": 12,\n  \"total_pages\": 2,\n  \"data\": [\n    {\n      \"id\": 1,\n      \"name\": \"cerulean\",\n      \"year\": 2000,\n      \"color\": \"#98B2D1\",\n      \"pantone_value\": \"15-4020\"\n    },\n    {\n      \"id\": 2,\n      \"name\": \"fuchsia rose\",\n      \"year\": 2001,\n      \"color\": \"#C74375\",\n      \"pantone_value\": \"17-2031\"\n    },\n    {\n      \"id\": 3,\n      \"name\": \"true red\",\n      \"year\": 2002,\n      \"color\": \"#BF1932\",\n      \"pantone_value\": \"19-1664\"\n    },\n    {\n      \"id\": 4,\n      \"name\": \"aqua sky\",\n      \"year\": 2003,\n      \"color\": \"#7BC4C4\",\n      \"pantone_value\": \"14-4811\"\n    },\n    {\n      \"id\": 5,\n      \"name\": \"tigerlily\",\n      \"year\": 2004,\n      \"color\": \"#E2583E\",\n      \"pantone_value\": \"17-1456\"\n    },\n    {\n      \"id\": 6,\n      \"name\": \"blue turquoise\",\n      \"year\": 2005,\n      \"color\": \"#53B0AE\",\n      \"pantone_value\": \"15-5217\"\n    }\n  ],\n  \"support\": {\n    \"url\": \"https:\/\/reqres.in\/#support-heading\",\n    \"text\": \"To keep ReqRes free, contributions towards server costs are appreciated!\"\n  }\n}\n \n"}],"executorName":"pool-1-thread-2","line":8,"name":"To get all the data from application in JSON format","description":"","durationMillis":3730.6903,"startTime":1704174941768,"failed":false,"refId":"[1:8]","endTime":1704174945803,"exampleIndex":-1},{"sectionIndex":1,"stepResults":[{"result":{"nanos":539400,"millis":0.5394,"status":"passed"},"step":{"background":true,"line":5,"prefix":"Given","index":0,"text":"url 'https:\/\/reqres.in'"},"stepLog":"16:55:42.063 karate.env system property was: null \n"},{"result":{"nanos":2927100,"millis":2.9271,"status":"passed"},"step":{"background":true,"line":6,"prefix":"And","index":1,"text":"print \"Setup the Base path\""},"stepLog":"16:55:42.075 [print] Setup the Base path \n"},{"result":{"nanos":428600,"millis":0.4286,"status":"passed"},"step":{"line":23,"prefix":"And","index":0,"text":"path '\/api\/users?page=2'"}},{"result":{"nanos":442200,"millis":0.4422,"status":"passed"},"step":{"line":24,"prefix":"And","index":1,"text":"header Accept = 'application\/xml'"}},{"result":{"nanos":3694370200,"millis":3694.3702,"status":"passed"},"step":{"line":25,"prefix":"When","index":2,"text":"method get # Send the get request"},"stepLog":"16:55:44.385 request:\n1 > GET https:\/\/reqres.in\/api\/users%3Fpage=2\n1 > Accept: application\/xml\n1 > Host: reqres.in\n1 > Connection: Keep-Alive\n1 > User-Agent: Apache-HttpClient\/4.5.14 (Java\/17.0.8.1)\n1 > Accept-Encoding: gzip,deflate\n\n\n16:55:45.771 response time in milliseconds: 1384\n1 < 200\n1 < Date: Tue, 02 Jan 2024 05:55:49 GMT\n1 < Content-Type: application\/json; charset=utf-8\n1 < Transfer-Encoding: chunked\n1 < Connection: keep-alive\n1 < Report-To: {\"group\":\"heroku-nel\",\"max_age\":3600,\"endpoints\":[{\"url\":\"https:\/\/nel.heroku.com\/reports?ts=1704174949&sid=c4c9725f-1ab0-44d8-820f-430df2718e11&s=GtlwQAInRKRr1VFbC4r4CPpHSs7DPfuA4yB2uz6ep60%3D\"}]}\n1 < Reporting-Endpoints: heroku-nel=https:\/\/nel.heroku.com\/reports?ts=1704174949&sid=c4c9725f-1ab0-44d8-820f-430df2718e11&s=GtlwQAInRKRr1VFbC4r4CPpHSs7DPfuA4yB2uz6ep60%3D\n1 < Nel: {\"report_to\":\"heroku-nel\",\"max_age\":3600,\"success_fraction\":0.005,\"failure_fraction\":0.05,\"response_headers\":[\"Via\"]}\n1 < X-Powered-By: Express\n1 < Access-Control-Allow-Origin: *\n1 < Etag: W\/\"2c1-N6Rqerxquq2kgQhL51EiSg4x0R8\"\n1 < Via: 1.1 vegur\n1 < Cache-Control: max-age=14400\n1 < CF-Cache-Status: MISS\n1 < Vary: Accept-Encoding\n1 < Server: cloudflare\n1 < CF-RAY: 83f0c1579c01573b-SYD\n{\"page\":1,\"per_page\":6,\"total\":12,\"total_pages\":2,\"data\":[{\"id\":1,\"name\":\"cerulean\",\"year\":2000,\"color\":\"#98B2D1\",\"pantone_value\":\"15-4020\"},{\"id\":2,\"name\":\"fuchsia rose\",\"year\":2001,\"color\":\"#C74375\",\"pantone_value\":\"17-2031\"},{\"id\":3,\"name\":\"true red\",\"year\":2002,\"color\":\"#BF1932\",\"pantone_value\":\"19-1664\"},{\"id\":4,\"name\":\"aqua sky\",\"year\":2003,\"color\":\"#7BC4C4\",\"pantone_value\":\"14-4811\"},{\"id\":5,\"name\":\"tigerlily\",\"year\":2004,\"color\":\"#E2583E\",\"pantone_value\":\"17-1456\"},{\"id\":6,\"name\":\"blue turquoise\",\"year\":2005,\"color\":\"#53B0AE\",\"pantone_value\":\"15-5217\"}],\"support\":{\"url\":\"https:\/\/reqres.in\/#support-heading\",\"text\":\"To keep ReqRes free, contributions towards server costs are appreciated!\"}}\n\n"},{"result":{"nanos":6200,"millis":0.0062,"status":"passed"},"step":{"line":26,"prefix":"Then","index":3,"text":"status 200 # the status code response should be 200"}},{"result":{"nanos":3202900,"millis":3.2029,"status":"passed"},"step":{"line":27,"prefix":"And","index":4,"text":"print response"},"stepLog":"16:55:45.775 [print] {\n  \"page\": 1,\n  \"per_page\": 6,\n  \"total\": 12,\n  \"total_pages\": 2,\n  \"data\": [\n    {\n      \"id\": 1,\n      \"name\": \"cerulean\",\n      \"year\": 2000,\n      \"color\": \"#98B2D1\",\n      \"pantone_value\": \"15-4020\"\n    },\n    {\n      \"id\": 2,\n      \"name\": \"fuchsia rose\",\n      \"year\": 2001,\n      \"color\": \"#C74375\",\n      \"pantone_value\": \"17-2031\"\n    },\n    {\n      \"id\": 3,\n      \"name\": \"true red\",\n      \"year\": 2002,\n      \"color\": \"#BF1932\",\n      \"pantone_value\": \"19-1664\"\n    },\n    {\n      \"id\": 4,\n      \"name\": \"aqua sky\",\n      \"year\": 2003,\n      \"color\": \"#7BC4C4\",\n      \"pantone_value\": \"14-4811\"\n    },\n    {\n      \"id\": 5,\n      \"name\": \"tigerlily\",\n      \"year\": 2004,\n      \"color\": \"#E2583E\",\n      \"pantone_value\": \"17-1456\"\n    },\n    {\n      \"id\": 6,\n      \"name\": \"blue turquoise\",\n      \"year\": 2005,\n      \"color\": \"#53B0AE\",\n      \"pantone_value\": \"15-5217\"\n    }\n  ],\n  \"support\": {\n    \"url\": \"https:\/\/reqres.in\/#support-heading\",\n    \"text\": \"To keep ReqRes free, contributions towards server costs are appreciated!\"\n  }\n}\n \n"},{"result":{"nanos":7013500,"millis":7.0135,"status":"passed"},"step":{"line":28,"prefix":"And","index":5,"text":"match response contains deep {\"data\":[{\"name\":\"tigerlily\"}]}"}}],"executorName":"pool-1-thread-3","line":22,"name":"To get all the data from application in XML format","description":"","durationMillis":3708.9301,"startTime":1704174941768,"failed":false,"refId":"[2:22]","endTime":1704174945783,"exampleIndex":-1}],"callDepth":0,"name":"To test the \"GET\" end point of the application","description":"To test different get end point with different data formate supported by the application","resultDate":"2024-01-02 04:55:47 PM","durationMillis":7439.6204,"passedCount":2}