[{"line":1,"elements":[{"line":4,"name":"","description":"","type":"background","keyword":"Background","steps":[{"name":"url 'https:\/\/reqres.in'","result":{"duration":1004300,"status":"passed"},"match":{"location":"karate","arguments":[]},"keyword":"Given","line":5,"doc_string":{"content_type":"","value":"16:57:04.843 karate.env system property was: null \n","line":5}},{"name":"print \"Setup the Base path\"","result":{"duration":6227800,"status":"passed"},"match":{"location":"karate","arguments":[]},"keyword":"And","line":6,"doc_string":{"content_type":"","value":"16:57:04.861 [print] Setup the Base path \n","line":6}}]},{"start_timestamp":"2024-01-02T05:57:04.532Z","line":8,"name":"To get all the data from application in JSON format","description":"","id":"to-get-all-the-data-from-application-in-json-format","type":"scenario","keyword":"Scenario","steps":[{"name":"path '\/api\/users?page=1'","result":{"duration":2871100,"status":"passed"},"match":{"location":"karate","arguments":[]},"keyword":"And","line":9},{"name":"method get # Send the get request","result":{"duration":1630537100,"status":"passed"},"match":{"location":"karate","arguments":[]},"keyword":"When","line":10,"doc_string":{"content_type":"","value":"16:57:05.240 request:\n1 > GET https:\/\/reqres.in\/api\/users%3Fpage=1\n1 > Host: reqres.in\n1 > Connection: Keep-Alive\n1 > User-Agent: Apache-HttpClient\/4.5.14 (Java\/17.0.8.1)\n1 > Accept-Encoding: gzip,deflate\n\n\n16:57:06.493 response time in milliseconds: 1252\n1 < 200\n1 < Date: Tue, 02 Jan 2024 05:57:10 GMT\n1 < Content-Type: application\/json; charset=utf-8\n1 < Transfer-Encoding: chunked\n1 < Connection: keep-alive\n1 < Report-To: {\"group\":\"heroku-nel\",\"max_age\":3600,\"endpoints\":[{\"url\":\"https:\/\/nel.heroku.com\/reports?ts=1704175030&sid=c4c9725f-1ab0-44d8-820f-430df2718e11&s=b%2BROBNFzXfafBtTK8%2BEMeDwB7M2IkeAg6AoOnw3R%2BY8%3D\"}]}\n1 < Reporting-Endpoints: heroku-nel=https:\/\/nel.heroku.com\/reports?ts=1704175030&sid=c4c9725f-1ab0-44d8-820f-430df2718e11&s=b%2BROBNFzXfafBtTK8%2BEMeDwB7M2IkeAg6AoOnw3R%2BY8%3D\n1 < Nel: {\"report_to\":\"heroku-nel\",\"max_age\":3600,\"success_fraction\":0.005,\"failure_fraction\":0.05,\"response_headers\":[\"Via\"]}\n1 < X-Powered-By: Express\n1 < Access-Control-Allow-Origin: *\n1 < Etag: W\/\"2c1-N6Rqerxquq2kgQhL51EiSg4x0R8\"\n1 < Via: 1.1 vegur\n1 < Cache-Control: max-age=14400\n1 < CF-Cache-Status: MISS\n1 < Vary: Accept-Encoding\n1 < Server: cloudflare\n1 < CF-RAY: 83f0c3501b28dfaf-SYD\n{\"page\":1,\"per_page\":6,\"total\":12,\"total_pages\":2,\"data\":[{\"id\":1,\"name\":\"cerulean\",\"year\":2000,\"color\":\"#98B2D1\",\"pantone_value\":\"15-4020\"},{\"id\":2,\"name\":\"fuchsia rose\",\"year\":2001,\"color\":\"#C74375\",\"pantone_value\":\"17-2031\"},{\"id\":3,\"name\":\"true red\",\"year\":2002,\"color\":\"#BF1932\",\"pantone_value\":\"19-1664\"},{\"id\":4,\"name\":\"aqua sky\",\"year\":2003,\"color\":\"#7BC4C4\",\"pantone_value\":\"14-4811\"},{\"id\":5,\"name\":\"tigerlily\",\"year\":2004,\"color\":\"#E2583E\",\"pantone_value\":\"17-1456\"},{\"id\":6,\"name\":\"blue turquoise\",\"year\":2005,\"color\":\"#53B0AE\",\"pantone_value\":\"15-5217\"}],\"support\":{\"url\":\"https:\/\/reqres.in\/#support-heading\",\"text\":\"To keep ReqRes free, contributions towards server costs are appreciated!\"}}\n\n","line":10}},{"name":"status 200 # the status code response should be 200","result":{"duration":12100,"status":"passed"},"match":{"location":"karate","arguments":[]},"keyword":"Then","line":11},{"name":"print response","result":{"duration":1999700,"status":"passed"},"match":{"location":"karate","arguments":[]},"keyword":"And","line":12,"doc_string":{"content_type":"","value":"16:57:06.498 [print] {\n  \"page\": 1,\n  \"per_page\": 6,\n  \"total\": 12,\n  \"total_pages\": 2,\n  \"data\": [\n    {\n      \"id\": 1,\n      \"name\": \"cerulean\",\n      \"year\": 2000,\n      \"color\": \"#98B2D1\",\n      \"pantone_value\": \"15-4020\"\n    },\n    {\n      \"id\": 2,\n      \"name\": \"fuchsia rose\",\n      \"year\": 2001,\n      \"color\": \"#C74375\",\n      \"pantone_value\": \"17-2031\"\n    },\n    {\n      \"id\": 3,\n      \"name\": \"true red\",\n      \"year\": 2002,\n      \"color\": \"#BF1932\",\n      \"pantone_value\": \"19-1664\"\n    },\n    {\n      \"id\": 4,\n      \"name\": \"aqua sky\",\n      \"year\": 2003,\n      \"color\": \"#7BC4C4\",\n      \"pantone_value\": \"14-4811\"\n    },\n    {\n      \"id\": 5,\n      \"name\": \"tigerlily\",\n      \"year\": 2004,\n      \"color\": \"#E2583E\",\n      \"pantone_value\": \"17-1456\"\n    },\n    {\n      \"id\": 6,\n      \"name\": \"blue turquoise\",\n      \"year\": 2005,\n      \"color\": \"#53B0AE\",\n      \"pantone_value\": \"15-5217\"\n    }\n  ],\n  \"support\": {\n    \"url\": \"https:\/\/reqres.in\/#support-heading\",\n    \"text\": \"To keep ReqRes free, contributions towards server costs are appreciated!\"\n  }\n}\n \n","line":12}},{"name":"match response contains deep {\"page\":1}","result":{"duration":928200,"status":"passed"},"match":{"location":"karate","arguments":[]},"keyword":"And","line":13},{"name":"match response contains deep {\"data\":[{\"name\":\"fuchsia rose\"}]}","result":{"duration":514900,"status":"passed"},"match":{"location":"karate","arguments":[]},"keyword":"And","line":14},{"name":"match response.data[3].name == 'aqua sky'","result":{"duration":1774800,"status":"passed"},"match":{"location":"karate","arguments":[]},"keyword":"And","line":15},{"name":"match response.data[3].name == '#present'","result":{"duration":765900,"status":"passed"},"match":{"location":"karate","arguments":[]},"keyword":"And","line":16},{"name":"match response.data[3].name == '#notnull'","result":{"duration":791900,"status":"passed"},"match":{"location":"karate","arguments":[]},"keyword":"And","line":17},{"name":"def actualResponse = read(\"JsonResponse.json\")","result":{"duration":1579300,"status":"passed"},"match":{"location":"karate","arguments":[]},"keyword":"*","line":18},{"name":"match response == actualResponse","result":{"duration":722800,"status":"passed"},"match":{"location":"karate","arguments":[]},"keyword":"And","line":19},{"name":"print \"File ==> \", actualResponse","result":{"duration":1595100,"status":"passed"},"match":{"location":"karate","arguments":[]},"keyword":"And","line":20,"doc_string":{"content_type":"","value":"16:57:06.508 [print] File ==>  {\n  \"page\": 1,\n  \"per_page\": 6,\n  \"total\": 12,\n  \"total_pages\": 2,\n  \"data\": [\n    {\n      \"id\": 1,\n      \"name\": \"cerulean\",\n      \"year\": 2000,\n      \"color\": \"#98B2D1\",\n      \"pantone_value\": \"15-4020\"\n    },\n    {\n      \"id\": 2,\n      \"name\": \"fuchsia rose\",\n      \"year\": 2001,\n      \"color\": \"#C74375\",\n      \"pantone_value\": \"17-2031\"\n    },\n    {\n      \"id\": 3,\n      \"name\": \"true red\",\n      \"year\": 2002,\n      \"color\": \"#BF1932\",\n      \"pantone_value\": \"19-1664\"\n    },\n    {\n      \"id\": 4,\n      \"name\": \"aqua sky\",\n      \"year\": 2003,\n      \"color\": \"#7BC4C4\",\n      \"pantone_value\": \"14-4811\"\n    },\n    {\n      \"id\": 5,\n      \"name\": \"tigerlily\",\n      \"year\": 2004,\n      \"color\": \"#E2583E\",\n      \"pantone_value\": \"17-1456\"\n    },\n    {\n      \"id\": 6,\n      \"name\": \"blue turquoise\",\n      \"year\": 2005,\n      \"color\": \"#53B0AE\",\n      \"pantone_value\": \"15-5217\"\n    }\n  ],\n  \"support\": {\n    \"url\": \"https:\/\/reqres.in\/#support-heading\",\n    \"text\": \"To keep ReqRes free, contributions towards server costs are appreciated!\"\n  }\n}\n \n","line":20}}],"tags":[]},{"line":4,"name":"","description":"","type":"background","keyword":"Background","steps":[{"name":"url 'https:\/\/reqres.in'","result":{"duration":870800,"status":"passed"},"match":{"location":"karate","arguments":[]},"keyword":"Given","line":5,"doc_string":{"content_type":"","value":"16:57:04.857 karate.env system property was: null \n","line":5}},{"name":"print \"Setup the Base path\"","result":{"duration":2199300,"status":"passed"},"match":{"location":"karate","arguments":[]},"keyword":"And","line":6,"doc_string":{"content_type":"","value":"16:57:04.863 [print] Setup the Base path \n","line":6}}]},{"start_timestamp":"2024-01-02T05:57:04.532Z","line":22,"name":"To get all the data from application in XML format","description":"","id":"to-get-all-the-data-from-application-in-xml-format","type":"scenario","keyword":"Scenario","steps":[{"name":"path '\/api\/users?page=2'","result":{"duration":667500,"status":"passed"},"match":{"location":"karate","arguments":[]},"keyword":"And","line":23},{"name":"header Accept = 'application\/xml'","result":{"duration":1001200,"status":"passed"},"match":{"location":"karate","arguments":[]},"keyword":"And","line":24},{"name":"method get # Send the get request","result":{"duration":1108238800,"status":"passed"},"match":{"location":"karate","arguments":[]},"keyword":"When","line":25,"doc_string":{"content_type":"","value":"16:57:05.243 request:\n1 > GET https:\/\/reqres.in\/api\/users%3Fpage=2\n1 > Accept: application\/xml\n1 > Host: reqres.in\n1 > Connection: Keep-Alive\n1 > User-Agent: Apache-HttpClient\/4.5.14 (Java\/17.0.8.1)\n1 > Accept-Encoding: gzip,deflate\n\n\n16:57:05.972 response time in milliseconds: 724\n1 < 200\n1 < Date: Tue, 02 Jan 2024 05:57:09 GMT\n1 < Content-Type: application\/json; charset=utf-8\n1 < Transfer-Encoding: chunked\n1 < Connection: keep-alive\n1 < Report-To: {\"group\":\"heroku-nel\",\"max_age\":3600,\"endpoints\":[{\"url\":\"https:\/\/nel.heroku.com\/reports?ts=1704174949&sid=c4c9725f-1ab0-44d8-820f-430df2718e11&s=GtlwQAInRKRr1VFbC4r4CPpHSs7DPfuA4yB2uz6ep60%3D\"}]}\n1 < Reporting-Endpoints: heroku-nel=https:\/\/nel.heroku.com\/reports?ts=1704174949&sid=c4c9725f-1ab0-44d8-820f-430df2718e11&s=GtlwQAInRKRr1VFbC4r4CPpHSs7DPfuA4yB2uz6ep60%3D\n1 < Nel: {\"report_to\":\"heroku-nel\",\"max_age\":3600,\"success_fraction\":0.005,\"failure_fraction\":0.05,\"response_headers\":[\"Via\"]}\n1 < X-Powered-By: Express\n1 < Access-Control-Allow-Origin: *\n1 < Etag: W\/\"2c1-N6Rqerxquq2kgQhL51EiSg4x0R8\"\n1 < Via: 1.1 vegur\n1 < Cache-Control: max-age=14400\n1 < CF-Cache-Status: HIT\n1 < Age: 80\n1 < Vary: Accept-Encoding\n1 < Server: cloudflare\n1 < CF-RAY: 83f0c3501f5da953-SYD\n{\"page\":1,\"per_page\":6,\"total\":12,\"total_pages\":2,\"data\":[{\"id\":1,\"name\":\"cerulean\",\"year\":2000,\"color\":\"#98B2D1\",\"pantone_value\":\"15-4020\"},{\"id\":2,\"name\":\"fuchsia rose\",\"year\":2001,\"color\":\"#C74375\",\"pantone_value\":\"17-2031\"},{\"id\":3,\"name\":\"true red\",\"year\":2002,\"color\":\"#BF1932\",\"pantone_value\":\"19-1664\"},{\"id\":4,\"name\":\"aqua sky\",\"year\":2003,\"color\":\"#7BC4C4\",\"pantone_value\":\"14-4811\"},{\"id\":5,\"name\":\"tigerlily\",\"year\":2004,\"color\":\"#E2583E\",\"pantone_value\":\"17-1456\"},{\"id\":6,\"name\":\"blue turquoise\",\"year\":2005,\"color\":\"#53B0AE\",\"pantone_value\":\"15-5217\"}],\"support\":{\"url\":\"https:\/\/reqres.in\/#support-heading\",\"text\":\"To keep ReqRes free, contributions towards server costs are appreciated!\"}}\n\n","line":25}},{"name":"status 200 # the status code response should be 200","result":{"duration":25900,"status":"passed"},"match":{"location":"karate","arguments":[]},"keyword":"Then","line":26},{"name":"print response","result":{"duration":3029700,"status":"passed"},"match":{"location":"karate","arguments":[]},"keyword":"And","line":27,"doc_string":{"content_type":"","value":"16:57:05.977 [print] {\n  \"page\": 1,\n  \"per_page\": 6,\n  \"total\": 12,\n  \"total_pages\": 2,\n  \"data\": [\n    {\n      \"id\": 1,\n      \"name\": \"cerulean\",\n      \"year\": 2000,\n      \"color\": \"#98B2D1\",\n      \"pantone_value\": \"15-4020\"\n    },\n    {\n      \"id\": 2,\n      \"name\": \"fuchsia rose\",\n      \"year\": 2001,\n      \"color\": \"#C74375\",\n      \"pantone_value\": \"17-2031\"\n    },\n    {\n      \"id\": 3,\n      \"name\": \"true red\",\n      \"year\": 2002,\n      \"color\": \"#BF1932\",\n      \"pantone_value\": \"19-1664\"\n    },\n    {\n      \"id\": 4,\n      \"name\": \"aqua sky\",\n      \"year\": 2003,\n      \"color\": \"#7BC4C4\",\n      \"pantone_value\": \"14-4811\"\n    },\n    {\n      \"id\": 5,\n      \"name\": \"tigerlily\",\n      \"year\": 2004,\n      \"color\": \"#E2583E\",\n      \"pantone_value\": \"17-1456\"\n    },\n    {\n      \"id\": 6,\n      \"name\": \"blue turquoise\",\n      \"year\": 2005,\n      \"color\": \"#53B0AE\",\n      \"pantone_value\": \"15-5217\"\n    }\n  ],\n  \"support\": {\n    \"url\": \"https:\/\/reqres.in\/#support-heading\",\n    \"text\": \"To keep ReqRes free, contributions towards server costs are appreciated!\"\n  }\n}\n \n","line":27}},{"name":"match response contains deep {\"data\":[{\"name\":\"tigerlily\"}]}","result":{"duration":19256600,"status":"passed"},"match":{"location":"karate","arguments":[]},"keyword":"And","line":28}],"tags":[]}],"name":"com\/api\/automation\/getRequest\/getRequest.feature","description":"To test the \"GET\" end point of the application\nTo test different get end point with different data formate supported by the application","id":"to-test-the-\"get\"-end-point-of-the-application","keyword":"Feature","uri":"com\/api\/automation\/getRequest\/getRequest.feature"}]